EESchema Schematic File Version 4
LIBS:refldens-cache
EELAYER 30 0
EELAYER END
$Descr A4 11693 8268
encoding utf-8
Sheet 1 1
Title ""
Date ""
Rev ""
Comp ""
Comment1 ""
Comment2 ""
Comment3 ""
Comment4 ""
$EndDescr
$Comp
L Regulator_Linear:MIC5365-3.3YD5 U1
U 1 1 5D852C55
P 1800 5100
F 0 "U1" H 1800 5467 50  0000 C CNN
F 1 "MIC5365-1.0YC5" H 1800 5376 50  0000 C CNN
F 2 "Package_TO_SOT_SMD:SOT-23-5" H 1800 5450 50  0001 C CNN
F 3 "http://ww1.microchip.com/downloads/en/DeviceDoc/mic5365.pdf" H 1550 5350 50  0001 C CNN
F 4 "576-3173-1-ND" H 1800 5100 50  0001 C CNN "PN"
	1    1800 5100
	1    0    0    -1  
$EndComp
$Comp
L Switch:SW_Push SW1
U 1 1 5D8544A8
P 8750 2400
F 0 "SW1" H 8750 2685 50  0000 C CNN
F 1 "SW_Push" H 8750 2594 50  0000 C CNN
F 2 "refldens:SWITCH_C&K_D6C" H 8750 2600 50  0001 C CNN
F 3 "~" H 8750 2600 50  0001 C CNN
F 4 "401-1985-ND" H 8750 2400 50  0001 C CNN "PN"
	1    8750 2400
	1    0    0    -1  
$EndComp
$Comp
L Switch:SW_Push SW2
U 1 1 5D854BFA
P 9200 2500
F 0 "SW2" H 9200 2785 50  0000 C CNN
F 1 "SW_Push" H 9200 2694 50  0000 C CNN
F 2 "refldens:SWITCH_C&K_D6C" H 9200 2700 50  0001 C CNN
F 3 "~" H 9200 2700 50  0001 C CNN
F 4 "401-1967-ND" H 9200 2500 50  0001 C CNN "PN"
	1    9200 2500
	1    0    0    -1  
$EndComp
$Comp
L power:+5V #PWR027
U 1 1 5D85CFB0
P 7650 1700
F 0 "#PWR027" H 7650 1550 50  0001 C CNN
F 1 "+5V" H 7665 1873 50  0000 C CNN
F 2 "" H 7650 1700 50  0001 C CNN
F 3 "" H 7650 1700 50  0001 C CNN
	1    7650 1700
	1    0    0    -1  
$EndComp
$Comp
L power:GND #PWR028
U 1 1 5D85FF45
P 7850 3900
F 0 "#PWR028" H 7850 3650 50  0001 C CNN
F 1 "GND" H 7855 3727 50  0000 C CNN
F 2 "" H 7850 3900 50  0001 C CNN
F 3 "" H 7850 3900 50  0001 C CNN
	1    7850 3900
	1    0    0    -1  
$EndComp
Wire Wire Line
	7750 3800 7750 3900
Wire Wire Line
	7750 3900 7850 3900
Wire Wire Line
	7850 3800 7850 3900
Connection ~ 7850 3900
$Comp
L Device:LED D1
U 1 1 5D8620C0
P 850 4700
F 0 "D1" V 889 4582 50  0000 R CNN
F 1 "OVLGY0C9B9" V 798 4582 50  0000 R CNN
F 2 "LED_THT:LED_D5.0mm" H 850 4700 50  0001 C CNN
F 3 "~" H 850 4700 50  0001 C CNN
F 4 "365-1190-ND" V 850 4700 50  0001 C CNN "PN"
	1    850  4700
	0    -1   -1   0   
$EndComp
$Comp
L power:GND #PWR07
U 1 1 5D8642F5
P 2300 5600
F 0 "#PWR07" H 2300 5350 50  0001 C CNN
F 1 "GND" H 2305 5427 50  0000 C CNN
F 2 "" H 2300 5600 50  0001 C CNN
F 3 "" H 2300 5600 50  0001 C CNN
	1    2300 5600
	1    0    0    -1  
$EndComp
Wire Wire Line
	2200 5000 2300 5000
$Comp
L power:+5V #PWR01
U 1 1 5D865722
P 850 4450
F 0 "#PWR01" H 850 4300 50  0001 C CNN
F 1 "+5V" H 865 4623 50  0000 C CNN
F 2 "" H 850 4450 50  0001 C CNN
F 3 "" H 850 4450 50  0001 C CNN
	1    850  4450
	1    0    0    -1  
$EndComp
Wire Wire Line
	850  4450 850  4550
$Comp
L power:GND #PWR05
U 1 1 5D8692A6
P 1800 5600
F 0 "#PWR05" H 1800 5350 50  0001 C CNN
F 1 "GND" H 1805 5427 50  0000 C CNN
F 2 "" H 1800 5600 50  0001 C CNN
F 3 "" H 1800 5600 50  0001 C CNN
	1    1800 5600
	1    0    0    -1  
$EndComp
$Comp
L power:GND #PWR02
U 1 1 5D86F005
P 850 5600
F 0 "#PWR02" H 850 5350 50  0001 C CNN
F 1 "GND" H 855 5427 50  0000 C CNN
F 2 "" H 850 5600 50  0001 C CNN
F 3 "" H 850 5600 50  0001 C CNN
	1    850  5600
	1    0    0    -1  
$EndComp
Wire Wire Line
	1800 5400 1800 5600
NoConn ~ 7950 1800
NoConn ~ 7350 2200
NoConn ~ 7350 2300
NoConn ~ 7350 2600
$Comp
L power:GND #PWR03
U 1 1 5D87B051
P 1350 5600
F 0 "#PWR03" H 1350 5350 50  0001 C CNN
F 1 "GND" H 1355 5427 50  0000 C CNN
F 2 "" H 1350 5600 50  0001 C CNN
F 3 "" H 1350 5600 50  0001 C CNN
	1    1350 5600
	1    0    0    -1  
$EndComp
$Comp
L refldens:FAN4860 U2
U 1 1 5D874F30
P 3500 2750
F 0 "U2" H 3500 3465 50  0000 C CNN
F 1 "FAN4860" H 3500 3374 50  0000 C CNN
F 2 "refldens:UMLP-6" H 4050 2650 50  0001 C CNN
F 3 "" H 3600 3050 50  0001 C CNN
F 4 "FAN4860UMP5XCT-ND" H 3500 2750 50  0001 C CNN "PN"
	1    3500 2750
	1    0    0    -1  
$EndComp
$Comp
L power:GND #PWR06
U 1 1 5D875726
P 2900 3000
F 0 "#PWR06" H 2900 2750 50  0001 C CNN
F 1 "GND" H 2905 2827 50  0000 C CNN
F 2 "" H 2900 3000 50  0001 C CNN
F 3 "" H 2900 3000 50  0001 C CNN
	1    2900 3000
	1    0    0    -1  
$EndComp
$Comp
L Device:L_Small L1
U 1 1 5D878DCB
P 2850 2500
F 0 "L1" H 2898 2546 50  0000 L CNN
F 1 "1.0 uF, 0.8 A, 190 mOhm" H 2898 2455 50  0000 L CNN
F 2 "Inductor_SMD:L_0805_2012Metric" H 2850 2500 50  0001 C CNN
F 3 "~" H 2850 2500 50  0001 C CNN
F 4 "Murata" H 2850 2500 50  0001 C CNN "Manf"
F 5 "LQM21PN1R0MC0" H 2850 2500 50  0001 C CNN "Part"
F 6 "490-4992-1-ND" H 2850 2500 50  0001 C CNN "PN"
	1    2850 2500
	1    0    0    -1  
$EndComp
$Comp
L Device:C_Small C2
U 1 1 5D87A3B7
P 2900 2800
F 0 "C2" H 2992 2846 50  0000 L CNN
F 1 "2.2u 6.3V X5R" H 2992 2755 50  0000 L CNN
F 2 "Capacitor_SMD:C_0402_1005Metric" H 2900 2800 50  0001 C CNN
F 3 "~" H 2900 2800 50  0001 C CNN
F 4 "Murata" H 2900 2800 50  0001 C CNN "Manf"
F 5 "GRM155R60J225M" H 2900 2800 50  0001 C CNN "Part"
F 6 "490-13407-1-ND" H 2900 2800 50  0001 C CNN "PN"
	1    2900 2800
	1    0    0    -1  
$EndComp
Wire Wire Line
	3050 2650 2900 2650
Wire Wire Line
	2900 2650 2900 2700
Wire Wire Line
	2900 2900 2900 2950
Wire Wire Line
	2900 2950 3050 2950
Wire Wire Line
	2900 2950 2900 3000
Connection ~ 2900 2950
Wire Wire Line
	2850 2350 2850 2400
Wire Wire Line
	2850 2350 3050 2350
Wire Wire Line
	2900 2650 2850 2650
Wire Wire Line
	2850 2650 2850 2600
Connection ~ 2900 2650
Wire Wire Line
	3950 2350 4100 2350
Wire Wire Line
	4100 2350 4100 3200
Wire Wire Line
	4100 3200 3950 3200
$Comp
L Device:C_Small C5
U 1 1 5D87E9E4
P 4250 2600
F 0 "C5" H 4342 2646 50  0000 L CNN
F 1 "4.7u 10V X5R" H 4342 2555 50  0000 L CNN
F 2 "Capacitor_SMD:C_0603_1608Metric" H 4250 2600 50  0001 C CNN
F 3 "~" H 4250 2600 50  0001 C CNN
F 4 "Kemet" H 4250 2600 50  0001 C CNN "Manf"
F 5 "C0603C475K8PAC" H 4250 2600 50  0001 C CNN "Part"
F 6 "399-5503-1-ND" H 4250 2600 50  0001 C CNN "PN"
	1    4250 2600
	1    0    0    -1  
$EndComp
Wire Wire Line
	4100 2350 4250 2350
Connection ~ 4100 2350
$Comp
L power:GND #PWR09
U 1 1 5D8804DC
P 4250 2850
F 0 "#PWR09" H 4250 2600 50  0001 C CNN
F 1 "GND" H 4255 2677 50  0000 C CNN
F 2 "" H 4250 2850 50  0001 C CNN
F 3 "" H 4250 2850 50  0001 C CNN
	1    4250 2850
	1    0    0    -1  
$EndComp
$Comp
L power:+5V #PWR010
U 1 1 5D881575
P 4400 2250
F 0 "#PWR010" H 4400 2100 50  0001 C CNN
F 1 "+5V" H 4415 2423 50  0000 C CNN
F 2 "" H 4400 2250 50  0001 C CNN
F 3 "" H 4400 2250 50  0001 C CNN
	1    4400 2250
	1    0    0    -1  
$EndComp
Wire Wire Line
	4250 2350 4400 2350
Wire Wire Line
	4400 2350 4400 2250
Connection ~ 4250 2350
Connection ~ 2850 2650
$Comp
L power:GND #PWR04
U 1 1 5D8885F0
P 2450 3050
F 0 "#PWR04" H 2450 2800 50  0001 C CNN
F 1 "GND" H 2455 2877 50  0000 C CNN
F 2 "" H 2450 3050 50  0001 C CNN
F 3 "" H 2450 3050 50  0001 C CNN
	1    2450 3050
	1    0    0    -1  
$EndComp
Wire Wire Line
	3050 3200 2750 3200
Wire Wire Line
	2750 3200 2750 2650
Wire Wire Line
	2750 2650 2850 2650
Wire Wire Line
	2350 2650 2750 2650
Connection ~ 2750 2650
Text Notes 2350 1950 0    50   ~ 0
Power supply
Text Notes 1200 4350 0    50   ~ 0
LED driver
$Comp
L MCU_Module:Arduino_Nano_v3.x A1
U 1 1 5D850F56
P 7850 2800
F 0 "A1" H 7550 3900 50  0000 C CNN
F 1 "Arduino_Nano_v3.x" H 7250 3800 50  0000 C CNN
F 2 "Module:Arduino_Nano" H 8000 1850 50  0001 L CNN
F 3 "http://www.mouser.com/pdfdocs/Gravitech_Arduino_Nano3_0.pdf" H 7850 1800 50  0001 C CNN
	1    7850 2800
	-1   0    0    -1  
$EndComp
$Comp
L power:GND #PWR012
U 1 1 5D8D8369
P 4500 5750
F 0 "#PWR012" H 4500 5500 50  0001 C CNN
F 1 "GND" H 4505 5577 50  0000 C CNN
F 2 "" H 4500 5750 50  0001 C CNN
F 3 "" H 4500 5750 50  0001 C CNN
	1    4500 5750
	1    0    0    -1  
$EndComp
Wire Wire Line
	4500 5650 4500 5750
Wire Wire Line
	4500 4750 4500 4800
$Comp
L power:GND #PWR013
U 1 1 5D8E186C
P 4900 5450
F 0 "#PWR013" H 4900 5200 50  0001 C CNN
F 1 "GND" H 4905 5277 50  0000 C CNN
F 2 "" H 4900 5450 50  0001 C CNN
F 3 "" H 4900 5450 50  0001 C CNN
	1    4900 5450
	1    0    0    -1  
$EndComp
Wire Wire Line
	4850 5400 4900 5400
Wire Wire Line
	4900 5400 4900 5450
$Comp
L refldens:OPT3002 U3
U 1 1 5D87D85D
P 4500 5250
F 0 "U3" H 4700 5750 50  0000 R CNN
F 1 "OPT3002" H 4950 5650 50  0000 R CNN
F 2 "refldens:USON-6" H 4500 5250 50  0001 C CNN
F 3 "" H 4500 5250 50  0001 C CNN
F 4 "296-47274-1-ND" H 4500 5250 50  0001 C CNN "PN"
	1    4500 5250
	1    0    0    -1  
$EndComp
$Comp
L Device:R_Small R4
U 1 1 5D8E442A
P 7050 2900
F 0 "R4" H 7109 2946 50  0000 L CNN
F 1 "10k" H 7109 2855 50  0000 L CNN
F 2 "Resistor_SMD:R_0805_2012Metric" H 7050 2900 50  0001 C CNN
F 3 "~" H 7050 2900 50  0001 C CNN
F 4 "RR12P10.0KDCT-ND " H 7050 2900 50  0001 C CNN "PN"
	1    7050 2900
	1    0    0    -1  
$EndComp
$Comp
L Device:R_Small R3
U 1 1 5D8E31EC
P 6800 2900
F 0 "R3" H 6859 2946 50  0000 L CNN
F 1 "10k" H 6859 2855 50  0000 L CNN
F 2 "Resistor_SMD:R_0805_2012Metric" H 6800 2900 50  0001 C CNN
F 3 "~" H 6800 2900 50  0001 C CNN
F 4 "RR12P10.0KDCT-ND " H 6800 2900 50  0001 C CNN "PN"
	1    6800 2900
	1    0    0    -1  
$EndComp
Text Label 5050 5050 0    50   ~ 0
SCK
Text Label 5050 5150 0    50   ~ 0
SDA
Wire Wire Line
	4850 5050 5050 5050
Wire Wire Line
	5050 5150 4850 5150
Text Notes 4000 4400 0    50   ~ 0
Sensor
Text Label 6550 3300 2    50   ~ 0
SCK
Wire Wire Line
	7350 3200 6800 3200
Text Label 6550 3200 2    50   ~ 0
SDA
Wire Wire Line
	6800 3000 6800 3200
Wire Wire Line
	7050 3000 7050 3300
Wire Wire Line
	7050 3300 7350 3300
NoConn ~ 7750 1800
Wire Wire Line
	7650 1700 7650 1800
$Comp
L power:+5V #PWR022
U 1 1 5D89A507
P 6800 2650
F 0 "#PWR022" H 6800 2500 50  0001 C CNN
F 1 "+5V" H 6815 2823 50  0000 C CNN
F 2 "" H 6800 2650 50  0001 C CNN
F 3 "" H 6800 2650 50  0001 C CNN
	1    6800 2650
	1    0    0    -1  
$EndComp
Wire Wire Line
	6800 2650 6800 2700
Wire Wire Line
	7050 2800 7050 2700
Wire Wire Line
	7050 2700 6800 2700
Connection ~ 6800 2700
Wire Wire Line
	6800 2700 6800 2800
Wire Wire Line
	6550 3200 6800 3200
Wire Wire Line
	6550 3300 7050 3300
$Comp
L Regulator_Linear:LP5907MFX-3.3 U4
U 1 1 5D8AD4F5
P 3650 4850
F 0 "U4" H 3650 5217 50  0000 C CNN
F 1 "LP5907MFX-3.3" H 3650 5126 50  0000 C CNN
F 2 "Package_TO_SOT_SMD:SOT-23-5" H 3650 5200 50  0001 C CNN
F 3 "http://www.ti.com/lit/ds/symlink/lp5907.pdf" H 3650 5350 50  0001 C CNN
F 4 "296-38557-1-ND" H 3650 4850 50  0001 C CNN "PN"
	1    3650 4850
	1    0    0    -1  
$EndComp
$Comp
L Device:C_Small C3
U 1 1 5D8B8053
P 2450 5250
F 0 "C3" H 2542 5296 50  0000 L CNN
F 1 "1u" H 2542 5205 50  0000 L CNN
F 2 "Capacitor_SMD:C_0402_1005Metric" H 2450 5250 50  0001 C CNN
F 3 "~" H 2450 5250 50  0001 C CNN
F 4 "1276-1448-1-ND" H 2450 5250 50  0001 C CNN "PN"
	1    2450 5250
	1    0    0    -1  
$EndComp
$Comp
L Device:C_Small C1
U 1 1 5D8BB226
P 850 5450
F 0 "C1" H 942 5496 50  0000 L CNN
F 1 "1u" H 942 5405 50  0000 L CNN
F 2 "Capacitor_SMD:C_0402_1005Metric" H 850 5450 50  0001 C CNN
F 3 "~" H 850 5450 50  0001 C CNN
F 4 "1276-1448-1-ND" H 850 5450 50  0001 C CNN "PN"
	1    850  5450
	1    0    0    -1  
$EndComp
Wire Wire Line
	850  5550 850  5600
$Comp
L Device:R_Small R2
U 1 1 5D8BE406
P 2300 5250
F 0 "R2" H 2242 5204 50  0000 R CNN
F 1 "100" H 2242 5295 50  0000 R CNN
F 2 "Resistor_SMD:R_0805_2012Metric" H 2300 5250 50  0001 C CNN
F 3 "~" H 2300 5250 50  0001 C CNN
F 4 "RR12P100DCT-ND " H 2300 5250 50  0001 C CNN "PN"
	1    2300 5250
	1    0    0    1   
$EndComp
Wire Wire Line
	2300 5000 2300 5150
$Comp
L Device:R_Small R1
U 1 1 5D8C2E58
P 1350 5450
F 0 "R1" H 1291 5404 50  0000 R CNN
F 1 "10k" H 1291 5495 50  0000 R CNN
F 2 "Resistor_SMD:R_0805_2012Metric" H 1350 5450 50  0001 C CNN
F 3 "~" H 1350 5450 50  0001 C CNN
F 4 "RR12P10.0KDCT-ND " H 1350 5450 50  0001 C CNN "PN"
	1    1350 5450
	1    0    0    1   
$EndComp
Wire Wire Line
	1350 5550 1350 5600
Wire Wire Line
	2300 5350 2300 5500
Wire Wire Line
	2300 5000 2450 5000
Wire Wire Line
	2450 5000 2450 5150
Connection ~ 2300 5000
Wire Wire Line
	2450 5350 2450 5500
Wire Wire Line
	2450 5500 2300 5500
Connection ~ 2300 5500
Wire Wire Line
	2300 5500 2300 5600
Wire Wire Line
	1400 5200 1350 5200
Connection ~ 1350 5200
Wire Wire Line
	1350 5200 1250 5200
Wire Wire Line
	1350 5200 1350 5350
$Comp
L Device:C_Small C6
U 1 1 5D8E50ED
P 4050 4950
F 0 "C6" H 4142 4996 50  0000 L CNN
F 1 "1u" H 4142 4905 50  0000 L CNN
F 2 "Capacitor_SMD:C_0402_1005Metric" H 4050 4950 50  0001 C CNN
F 3 "~" H 4050 4950 50  0001 C CNN
F 4 "1276-1448-1-ND" H 4050 4950 50  0001 C CNN "PN"
	1    4050 4950
	1    0    0    -1  
$EndComp
$Comp
L power:GND #PWR014
U 1 1 5D8E637D
P 3650 5250
F 0 "#PWR014" H 3650 5000 50  0001 C CNN
F 1 "GND" H 3655 5077 50  0000 C CNN
F 2 "" H 3650 5250 50  0001 C CNN
F 3 "" H 3650 5250 50  0001 C CNN
	1    3650 5250
	1    0    0    -1  
$EndComp
Wire Wire Line
	4250 2350 4250 2500
Wire Wire Line
	4250 2700 4250 2850
Wire Wire Line
	3650 5150 3650 5200
Wire Wire Line
	4050 5050 4050 5200
Wire Wire Line
	4050 5200 3650 5200
Connection ~ 3650 5200
Wire Wire Line
	3650 5200 3650 5250
Wire Wire Line
	3950 4750 4050 4750
Wire Wire Line
	4050 4750 4050 4850
Connection ~ 4050 4750
Wire Wire Line
	3350 4850 3250 4850
Wire Wire Line
	3250 4850 3250 4750
Connection ~ 3250 4750
Wire Wire Line
	3250 4750 3350 4750
Wire Wire Line
	2900 4750 3100 4750
Text Notes 8350 4300 0    50   ~ 0
Display module
Text Label 8150 4650 2    50   ~ 0
SDA
Text Label 8150 4550 2    50   ~ 0
SCK
$Comp
L power:GND #PWR029
U 1 1 5D925CE2
P 7850 4800
F 0 "#PWR029" H 7850 4550 50  0001 C CNN
F 1 "GND" H 7855 4627 50  0000 C CNN
F 2 "" H 7850 4800 50  0001 C CNN
F 3 "" H 7850 4800 50  0001 C CNN
	1    7850 4800
	1    0    0    -1  
$EndComp
$Comp
L power:+5V #PWR030
U 1 1 5D926204
P 8150 4850
F 0 "#PWR030" H 8150 4700 50  0001 C CNN
F 1 "+5V" H 8165 5023 50  0000 C CNN
F 2 "" H 8150 4850 50  0001 C CNN
F 3 "" H 8150 4850 50  0001 C CNN
	1    8150 4850
	0    -1   -1   0   
$EndComp
NoConn ~ 4850 5250
$Comp
L power:GND #PWR031
U 1 1 5D94F630
P 9600 2600
F 0 "#PWR031" H 9600 2350 50  0001 C CNN
F 1 "GND" H 9605 2427 50  0000 C CNN
F 2 "" H 9600 2600 50  0001 C CNN
F 3 "" H 9600 2600 50  0001 C CNN
	1    9600 2600
	1    0    0    -1  
$EndComp
Wire Wire Line
	8350 2400 8550 2400
Wire Wire Line
	8350 2500 9000 2500
Wire Wire Line
	8950 2400 9600 2400
Wire Wire Line
	9600 2400 9600 2500
Wire Wire Line
	9400 2500 9600 2500
Connection ~ 9600 2500
Wire Wire Line
	9600 2500 9600 2600
NoConn ~ 7350 2800
NoConn ~ 7350 2900
NoConn ~ 7350 3000
NoConn ~ 7350 3100
NoConn ~ 7350 3400
NoConn ~ 7350 3500
NoConn ~ 8350 3500
NoConn ~ 8350 3400
NoConn ~ 8350 3300
NoConn ~ 8350 3200
NoConn ~ 8350 3100
NoConn ~ 8350 3000
NoConn ~ 8350 2900
NoConn ~ 8350 2800
NoConn ~ 8350 2300
NoConn ~ 8350 2200
$Comp
L Connector:Conn_01x03_Female J4
U 1 1 5D97D05D
P 6300 5300
F 0 "J4" H 6328 5326 50  0000 L CNN
F 1 "Conn_01x03_Female" H 6328 5235 50  0000 L CNN
F 2 "Connector_PinHeader_2.54mm:PinHeader_1x03_P2.54mm_Vertical" H 6300 5300 50  0001 C CNN
F 3 "~" H 6300 5300 50  0001 C CNN
	1    6300 5300
	1    0    0    -1  
$EndComp
Text Label 8650 2600 0    50   ~ 0
BUZZER
Wire Wire Line
	8350 2600 8650 2600
Text Label 5900 5300 2    50   ~ 0
BUZZER
$Comp
L power:GND #PWR019
U 1 1 5D9859B1
P 5900 5400
F 0 "#PWR019" H 5900 5150 50  0001 C CNN
F 1 "GND" H 5905 5227 50  0000 C CNN
F 2 "" H 5900 5400 50  0001 C CNN
F 3 "" H 5900 5400 50  0001 C CNN
	1    5900 5400
	1    0    0    -1  
$EndComp
$Comp
L power:+5V #PWR018
U 1 1 5D985EFD
P 5900 5200
F 0 "#PWR018" H 5900 5050 50  0001 C CNN
F 1 "+5V" H 5915 5373 50  0000 C CNN
F 2 "" H 5900 5200 50  0001 C CNN
F 3 "" H 5900 5200 50  0001 C CNN
	1    5900 5200
	0    -1   -1   0   
$EndComp
Wire Wire Line
	5900 5200 6100 5200
Wire Wire Line
	6100 5300 5900 5300
Wire Wire Line
	5900 5400 6100 5400
Text Notes 6400 5250 0    50   ~ 0
Buzzer
Text Notes 6850 4350 0    50   ~ 0
Connections
Text Notes 7100 1400 0    50   ~ 0
MCU
Connection ~ 6800 3200
Connection ~ 7050 3300
Text Notes 7300 7250 0    50   ~ 0
1
Text Notes 7400 7250 0    50   ~ 0
1
Text Notes 7400 7500 0    50   ~ 0
Reflection Densitometer: Electronics
Text Notes 10600 7650 0    50   ~ 0
1
Text Notes 8150 7650 0    50   ~ 0
20190929
Wire Wire Line
	8350 2700 8650 2700
Wire Wire Line
	850  4850 850  5000
Wire Wire Line
	1400 5000 850  5000
Connection ~ 850  5000
Wire Wire Line
	850  5000 850  5350
Text Notes 7950 5400 0    50   ~ 0
LED-Sensor
Text Label 7550 5350 2    50   ~ 0
SDA
Text Label 7550 5450 2    50   ~ 0
SCK
$Comp
L power:GND #PWR023
U 1 1 5D880C21
P 7550 5850
F 0 "#PWR023" H 7550 5600 50  0001 C CNN
F 1 "GND" H 7555 5677 50  0000 C CNN
F 2 "" H 7550 5850 50  0001 C CNN
F 3 "" H 7550 5850 50  0001 C CNN
	1    7550 5850
	1    0    0    -1  
$EndComp
Text Label 8650 2700 0    50   ~ 0
LED_EN
Text Label 1250 5200 2    50   ~ 0
LED_EN
$Comp
L power:+5V #PWR026
U 1 1 5D88EDDA
P 7550 5750
F 0 "#PWR026" H 7550 5600 50  0001 C CNN
F 1 "+5V" H 7565 5923 50  0000 C CNN
F 2 "" H 7550 5750 50  0001 C CNN
F 3 "" H 7550 5750 50  0001 C CNN
	1    7550 5750
	0    -1   -1   0   
$EndComp
Wire Wire Line
	7700 5450 7550 5450
Wire Wire Line
	7550 5550 7700 5550
Wire Wire Line
	7550 5750 7700 5750
$Comp
L Connector:Conn_01x04_Female J3
U 1 1 5D8AE271
P 6300 4600
F 0 "J3" H 6328 4576 50  0000 L CNN
F 1 "Conn_01x04_Female" H 6328 4485 50  0000 L CNN
F 2 "Connector_PinHeader_2.54mm:PinHeader_1x04_P2.54mm_Vertical" H 6300 4600 50  0001 C CNN
F 3 "~" H 6300 4600 50  0001 C CNN
	1    6300 4600
	1    0    0    -1  
$EndComp
Text Label 5900 4600 2    50   ~ 0
SDA
Text Label 5900 4500 2    50   ~ 0
SCK
$Comp
L power:GND #PWR017
U 1 1 5D8AE279
P 5900 4700
F 0 "#PWR017" H 5900 4450 50  0001 C CNN
F 1 "GND" H 5905 4527 50  0000 C CNN
F 2 "" H 5900 4700 50  0001 C CNN
F 3 "" H 5900 4700 50  0001 C CNN
	1    5900 4700
	1    0    0    -1  
$EndComp
Wire Wire Line
	5900 4500 6100 4500
Wire Wire Line
	6100 4600 5900 4600
Wire Wire Line
	5900 4700 6100 4700
Wire Wire Line
	6100 4800 5900 4800
Text Notes 6350 4500 0    50   ~ 0
Sensor
Text Label 7550 5550 2    50   ~ 0
LED_EN
$Comp
L power:GND #PWR024
U 1 1 5D8C231F
P 7350 5950
F 0 "#PWR024" H 7350 5700 50  0001 C CNN
F 1 "GND" H 7355 5777 50  0000 C CNN
F 2 "" H 7350 5950 50  0001 C CNN
F 3 "" H 7350 5950 50  0001 C CNN
	1    7350 5950
	1    0    0    -1  
$EndComp
Wire Wire Line
	7700 5950 7350 5950
Wire Wire Line
	7700 5850 7550 5850
$Comp
L Connector_Generic:Conn_01x01 J1
U 1 1 5D8A2CC3
P 2150 2650
F 0 "J1" H 2068 2425 50  0000 C CNN
F 1 "Conn_01x01" H 2068 2516 50  0000 C CNN
F 2 "Connector_Wire:SolderWirePad_1x01_Drill1.5mm" H 2150 2650 50  0001 C CNN
F 3 "~" H 2150 2650 50  0001 C CNN
	1    2150 2650
	-1   0    0    1   
$EndComp
$Comp
L Connector_Generic:Conn_01x01 J2
U 1 1 5D8A9465
P 2150 2950
F 0 "J2" H 2068 2725 50  0000 C CNN
F 1 "Conn_01x01" H 2068 2816 50  0000 C CNN
F 2 "Connector_Wire:SolderWirePad_1x01_Drill1.5mm" H 2150 2950 50  0001 C CNN
F 3 "~" H 2150 2950 50  0001 C CNN
	1    2150 2950
	-1   0    0    1   
$EndComp
Wire Wire Line
	2350 2950 2450 2950
Wire Wire Line
	2450 2950 2450 3050
Text Notes 1450 2750 0    50   ~ 0
From battery:\n3x1.5 V alkaline\nin series
Text Notes 6400 5800 0    50   ~ 0
LED
Wire Wire Line
	5900 5950 6100 5950
Wire Wire Line
	6100 5850 5900 5850
Wire Wire Line
	5900 5750 6100 5750
$Comp
L power:+5V #PWR020
U 1 1 5D8CD660
P 5900 5750
F 0 "#PWR020" H 5900 5600 50  0001 C CNN
F 1 "+5V" H 5915 5923 50  0000 C CNN
F 2 "" H 5900 5750 50  0001 C CNN
F 3 "" H 5900 5750 50  0001 C CNN
	1    5900 5750
	0    -1   -1   0   
$EndComp
$Comp
L power:GND #PWR021
U 1 1 5D8CD65A
P 5900 5950
F 0 "#PWR021" H 5900 5700 50  0001 C CNN
F 1 "GND" H 5905 5777 50  0000 C CNN
F 2 "" H 5900 5950 50  0001 C CNN
F 3 "" H 5900 5950 50  0001 C CNN
	1    5900 5950
	1    0    0    -1  
$EndComp
Text Label 5900 5850 2    50   ~ 0
LED_EN
$Comp
L Connector:Conn_01x03_Female J5
U 1 1 5D8CD653
P 6300 5850
F 0 "J5" H 6328 5876 50  0000 L CNN
F 1 "Conn_01x03_Female" H 6328 5785 50  0000 L CNN
F 2 "Connector_PinHeader_2.54mm:PinHeader_1x03_P2.54mm_Vertical" H 6300 5850 50  0001 C CNN
F 3 "~" H 6300 5850 50  0001 C CNN
	1    6300 5850
	1    0    0    -1  
$EndComp
$Comp
L refldens:TM1637_module A2
U 1 1 5D91170D
P 8950 4700
F 0 "A2" H 9578 4746 50  0000 L CNN
F 1 "TM1637_module" H 9578 4655 50  0000 L CNN
F 2 "refldens:TM1637_module" H 8450 4600 50  0001 C CNN
F 3 "" H 8450 4600 50  0001 C CNN
	1    8950 4700
	1    0    0    -1  
$EndComp
Wire Wire Line
	8150 4550 8250 4550
Wire Wire Line
	8150 4650 8250 4650
Wire Wire Line
	7850 4800 7850 4750
Wire Wire Line
	7850 4750 8250 4750
Wire Wire Line
	8150 4850 8250 4850
Wire Wire Line
	7550 5350 7700 5350
$Comp
L Connector:Conn_01x07_Female J6
U 1 1 5D8B4D55
P 7900 5650
F 0 "J6" H 7928 5676 50  0000 L CNN
F 1 "Conn_01x07_Female" H 7928 5585 50  0000 L CNN
F 2 "Connector_PinHeader_2.54mm:PinHeader_1x07_P2.54mm_Vertical" H 7900 5650 50  0001 C CNN
F 3 "~" H 7900 5650 50  0001 C CNN
	1    7900 5650
	1    0    0    -1  
$EndComp
$Comp
L power:+5V #PWR015
U 1 1 5D9361C0
P 7550 5650
F 0 "#PWR015" H 7550 5500 50  0001 C CNN
F 1 "+5V" H 7565 5823 50  0000 C CNN
F 2 "" H 7550 5650 50  0001 C CNN
F 3 "" H 7550 5650 50  0001 C CNN
	1    7550 5650
	0    -1   -1   0   
$EndComp
Wire Wire Line
	7700 5650 7550 5650
$Comp
L Device:C_Small C4
U 1 1 5D93B910
P 3100 4950
F 0 "C4" H 3192 4996 50  0000 L CNN
F 1 "1u" H 3192 4905 50  0000 L CNN
F 2 "Capacitor_SMD:C_0402_1005Metric" H 3100 4950 50  0001 C CNN
F 3 "~" H 3100 4950 50  0001 C CNN
F 4 "1276-1448-1-ND" H 3100 4950 50  0001 C CNN "PN"
	1    3100 4950
	1    0    0    -1  
$EndComp
Wire Wire Line
	3100 4850 3100 4750
Connection ~ 3100 4750
Wire Wire Line
	3100 4750 3250 4750
Wire Wire Line
	3100 5050 3100 5150
Wire Wire Line
	3100 5150 3650 5150
Connection ~ 3650 5150
Wire Wire Line
	4050 4750 4500 4750
$Comp
L power:+5V #PWR011
U 1 1 5D97C2F0
P 5900 4800
F 0 "#PWR011" H 5900 4650 50  0001 C CNN
F 1 "+5V" H 5915 4973 50  0000 C CNN
F 2 "" H 5900 4800 50  0001 C CNN
F 3 "" H 5900 4800 50  0001 C CNN
	1    5900 4800
	0    -1   -1   0   
$EndComp
$Comp
L power:+5V #PWR08
U 1 1 5D97C987
P 2900 4750
F 0 "#PWR08" H 2900 4600 50  0001 C CNN
F 1 "+5V" H 2915 4923 50  0000 C CNN
F 2 "" H 2900 4750 50  0001 C CNN
F 3 "" H 2900 4750 50  0001 C CNN
	1    2900 4750
	1    0    0    -1  
$EndComp
$Comp
L Mechanical:MountingHole H4
U 1 1 5D90711F
P 9500 6200
F 0 "H4" H 9600 6246 50  0000 L CNN
F 1 "MountingHole" H 9600 6155 50  0000 L CNN
F 2 "MountingHole:MountingHole_3.2mm_M3" H 9500 6200 50  0001 C CNN
F 3 "~" H 9500 6200 50  0001 C CNN
	1    9500 6200
	1    0    0    -1  
$EndComp
$Comp
L Mechanical:MountingHole H3
U 1 1 5D9088C3
P 9500 6000
F 0 "H3" H 9600 6046 50  0000 L CNN
F 1 "MountingHole" H 9600 5955 50  0000 L CNN
F 2 "MountingHole:MountingHole_3.2mm_M3" H 9500 6000 50  0001 C CNN
F 3 "~" H 9500 6000 50  0001 C CNN
	1    9500 6000
	1    0    0    -1  
$EndComp
$Comp
L Mechanical:MountingHole H2
U 1 1 5D908DA4
P 9500 5800
F 0 "H2" H 9600 5846 50  0000 L CNN
F 1 "MountingHole" H 9600 5755 50  0000 L CNN
F 2 "MountingHole:MountingHole_3.2mm_M3" H 9500 5800 50  0001 C CNN
F 3 "~" H 9500 5800 50  0001 C CNN
	1    9500 5800
	1    0    0    -1  
$EndComp
$Comp
L Mechanical:MountingHole H1
U 1 1 5D908F34
P 9500 5600
F 0 "H1" H 9600 5646 50  0000 L CNN
F 1 "MountingHole" H 9600 5555 50  0000 L CNN
F 2 "MountingHole:MountingHole_3.2mm_M3" H 9500 5600 50  0001 C CNN
F 3 "~" H 9500 5600 50  0001 C CNN
	1    9500 5600
	1    0    0    -1  
$EndComp
Text Notes 9050 7650 0    50   ~ 0
Licence: CC-BY-4.0
$EndSCHEMATC
